Identity added: /nethome/jli458/.ssh/id_rsa (/nethome/jli458/.ssh/id_rsa)
Identity added: /nethome/jli458/.ssh/id_rsa (/nethome/jli458/.ssh/id_rsa)
[jinx8:rank 1 of 2 -- mm1d.c:139] Creating 2048 x 4096 local problem...
[jinx7:rank 0 of 2 -- mm1d.c:139] Creating 2048 x 4096 local problem...
[jinx7:rank 0 of 2 -- mm1d.c:147] Performing one warm-up multiply...
[jinx8:rank 1 of 2 -- mm1d.c:147] Performing one warm-up multiply...
[jinx7:rank 0 of 2 -- mm1d.c:152] Timing trials...
[jinx8:rank 1 of 2 -- mm1d.c:152] Timing trials...
